{  
  "source_path":"C:\\Users\\Lasus\\Downloads\\Rappi2022\\source",
  "process_path":"C:\\Users\\Lasus\\Downloads\\Rappi2022\\process\\",
  "finished_path":"C:\\Users\\Lasus\\Downloads\\Rappi2022\\finished\\",
  "error_path":"C:\\Users\\Lasus\\Downloads\\Rappi2022\\error\\"
}